Terminals unused in grammar

   INVALID_REGISTER


Rules useless in parser due to conflicts

   78 space: SPACE error


State 69 conflicts: 2 reduce/reduce


Grammar

    0 $accept: program $end

    1 program: statements

    2 statements: statement
    3           | statements NEWLINE statement

    4 addressable: dataelement
    5            | instruction

    6 dataelement: word
    7            | byte
    8            | space
    9            | spacedw
   10            | ascii
   11            | asciiz
   12            | error

   13 labeldec: /* empty */
   14         | LABELDECL

   15 offset: INTEGER '(' REGISTER ')'
   16       | '(' REGISTER ')'
   17       | error

   18 rsrc1: REGISTER
   19      | error

   20 rsrc2: REGISTER
   21      | error

   22 rdest: REGISTER
   23      | error

   24 address: INTEGER
   25        | LABELREF
   26        | error

   27 statement: TEXT_SECTION
   28          | DATA_SECTION
   29          | labeldec
   30          | labeldec addressable
   31          | SECTION_IDENT

   32 $@1: /* empty */

   33 $@2: /* empty */

   34 instruction: ADDI $@1 rdest ',' rsrc1 $@2 ',' INTEGER

   35 $@3: /* empty */

   36 instruction: ADD $@3 rdest ',' rsrc1 ',' rsrc2

   37 $@4: /* empty */

   38 $@5: /* empty */

   39 instruction: SUBI $@4 rdest ',' rsrc1 $@5 ',' INTEGER

   40 $@6: /* empty */

   41 $@7: /* empty */

   42 instruction: BRANCHGE $@6 rsrc1 ',' rsrc2 ',' $@7 address

   43 $@8: /* empty */

   44 $@9: /* empty */

   45 instruction: BRANCHNE $@8 rsrc1 ',' rsrc2 ',' $@9 address

   46 $@10: /* empty */

   47 instruction: LOADBYTE $@10 rdest ',' offset

   48 $@11: /* empty */

   49 $@12: /* empty */

   50 instruction: LOADADDR $@11 rdest ',' $@12 address

   51 $@13: /* empty */

   52 $@14: /* empty */

   53 instruction: BRANCHEQZ $@13 rsrc1 ',' $@14 address
   54            | LOADIMMED rdest ',' INTEGER

   55 $@15: /* empty */

   56 instruction: BRANCH $@15 address
   57            | SYSCALL
   58            | NOOP

   59 $@16: /* empty */

   60 instruction: STOREBYTE $@16 offset ',' rdest

   61 $@17: /* empty */

   62 instruction: LOADDWORD $@17 rdest ',' offset

   63 $@18: /* empty */

   64 instruction: STOREDWORD $@18 offset ',' rdest

   65 $@19: /* empty */

   66 $@20: /* empty */

   67 instruction: MULTI $@19 rdest ',' rsrc1 $@20 ',' INTEGER

   68 $@21: /* empty */

   69 instruction: MULT $@21 rdest ',' rsrc1 ',' rsrc2
   70            | LABELREF

   71 word: WORD integers
   72     | WORD error

   73 byte: BYTE bytes
   74     | BYTE error

   75 space: SPACE INTEGER
   76      | SPACE error
   77      | SPACE INTEGER INTEGER
   78      | SPACE error

   79 spacedw: SPACEDW INTEGER INTEGER
   80        | SPACEDW error

   81 ascii: ASCII STRING
   82      | ASCII error

   83 asciiz: ASCIIZ STRING
   84       | ASCIIZ error

   85 integers: INTEGER
   86         | integers INTEGER

   87 bytes: INTEGER
   88      | bytes INTEGER


Terminals, with rules where they appear

$end (0) 0
'(' (40) 15 16
')' (41) 15 16
',' (44) 34 36 39 42 45 47 50 53 54 60 62 64 67 69
error (256) 12 17 19 21 23 26 72 74 76 78 80 82 84
NEWLINE (258) 3
TEXT_SECTION (259) 27
DATA_SECTION (260) 28
LABELDECL (261) 14
INTEGER (262) 15 24 34 39 54 67 75 77 79 85 86 87 88
LABELREF (263) 25 70
REGISTER (264) 15 16 18 20 22
INVALID_REGISTER (265)
ADDI (266) 34
ADD (267) 36
SUBI (268) 39
BRANCH (269) 56
BRANCHEQZ (270) 53
BRANCHGE (271) 42
BRANCHNE (272) 45
LOADADDR (273) 50
LOADBYTE (274) 47
LOADIMMED (275) 54
SYSCALL (276) 57
NOOP (277) 58
STOREBYTE (278) 60
LOADDWORD (279) 62
STOREDWORD (280) 64
MULT (281) 69
MULTI (282) 67
WORD (283) 71 72
BYTE (284) 73 74
SPACE (285) 75 76 77 78
SPACEDW (286) 79 80
ASCII (287) 81 82
ASCIIZ (288) 83 84
STRING (289) 81 83
SECTION_IDENT (290) 31


Nonterminals, with rules where they appear

$accept (39)
    on left: 0
program (40)
    on left: 1, on right: 0
statements (41)
    on left: 2 3, on right: 1 3
addressable (42)
    on left: 4 5, on right: 30
dataelement (43)
    on left: 6 7 8 9 10 11 12, on right: 4
labeldec (44)
    on left: 13 14, on right: 29 30
offset (45)
    on left: 15 16 17, on right: 47 60 62 64
rsrc1 (46)
    on left: 18 19, on right: 34 36 39 42 45 53 67 69
rsrc2 (47)
    on left: 20 21, on right: 36 42 45 69
rdest (48)
    on left: 22 23, on right: 34 36 39 47 50 54 60 62 64 67 69
address (49)
    on left: 24 25 26, on right: 42 45 50 53 56
statement (50)
    on left: 27 28 29 30 31, on right: 2 3
instruction (51)
    on left: 34 36 39 42 45 47 50 53 54 56 57 58 60 62 64 67 69 70,
    on right: 5
$@1 (52)
    on left: 32, on right: 34
$@2 (53)
    on left: 33, on right: 34
$@3 (54)
    on left: 35, on right: 36
$@4 (55)
    on left: 37, on right: 39
$@5 (56)
    on left: 38, on right: 39
$@6 (57)
    on left: 40, on right: 42
$@7 (58)
    on left: 41, on right: 42
$@8 (59)
    on left: 43, on right: 45
$@9 (60)
    on left: 44, on right: 45
$@10 (61)
    on left: 46, on right: 47
$@11 (62)
    on left: 48, on right: 50
$@12 (63)
    on left: 49, on right: 50
$@13 (64)
    on left: 51, on right: 53
$@14 (65)
    on left: 52, on right: 53
$@15 (66)
    on left: 55, on right: 56
$@16 (67)
    on left: 59, on right: 60
$@17 (68)
    on left: 61, on right: 62
$@18 (69)
    on left: 63, on right: 64
$@19 (70)
    on left: 65, on right: 67
$@20 (71)
    on left: 66, on right: 67
$@21 (72)
    on left: 68, on right: 69
word (73)
    on left: 71 72, on right: 6
byte (74)
    on left: 73 74, on right: 7
space (75)
    on left: 75 76 77 78, on right: 8
spacedw (76)
    on left: 79 80, on right: 9
ascii (77)
    on left: 81 82, on right: 10
asciiz (78)
    on left: 83 84, on right: 11
integers (79)
    on left: 85 86, on right: 71 86
bytes (80)
    on left: 87 88, on right: 73 88


State 0

    0 $accept: . program $end

    TEXT_SECTION   shift, and go to state 1
    DATA_SECTION   shift, and go to state 2
    LABELDECL      shift, and go to state 3
    SECTION_IDENT  shift, and go to state 4

    $default  reduce using rule 13 (labeldec)

    program     go to state 5
    statements  go to state 6
    labeldec    go to state 7
    statement   go to state 8


State 1

   27 statement: TEXT_SECTION .

    $default  reduce using rule 27 (statement)


State 2

   28 statement: DATA_SECTION .

    $default  reduce using rule 28 (statement)


State 3

   14 labeldec: LABELDECL .

    $default  reduce using rule 14 (labeldec)


State 4

   31 statement: SECTION_IDENT .

    $default  reduce using rule 31 (statement)


State 5

    0 $accept: program . $end

    $end  shift, and go to state 9


State 6

    1 program: statements .
    3 statements: statements . NEWLINE statement

    NEWLINE  shift, and go to state 10

    $default  reduce using rule 1 (program)


State 7

   29 statement: labeldec .
   30          | labeldec . addressable

    error       shift, and go to state 11
    LABELREF    shift, and go to state 12
    ADDI        shift, and go to state 13
    ADD         shift, and go to state 14
    SUBI        shift, and go to state 15
    BRANCH      shift, and go to state 16
    BRANCHEQZ   shift, and go to state 17
    BRANCHGE    shift, and go to state 18
    BRANCHNE    shift, and go to state 19
    LOADADDR    shift, and go to state 20
    LOADBYTE    shift, and go to state 21
    LOADIMMED   shift, and go to state 22
    SYSCALL     shift, and go to state 23
    NOOP        shift, and go to state 24
    STOREBYTE   shift, and go to state 25
    LOADDWORD   shift, and go to state 26
    STOREDWORD  shift, and go to state 27
    MULT        shift, and go to state 28
    MULTI       shift, and go to state 29
    WORD        shift, and go to state 30
    BYTE        shift, and go to state 31
    SPACE       shift, and go to state 32
    SPACEDW     shift, and go to state 33
    ASCII       shift, and go to state 34
    ASCIIZ      shift, and go to state 35

    $end     reduce using rule 29 (statement)
    NEWLINE  reduce using rule 29 (statement)

    addressable  go to state 36
    dataelement  go to state 37
    instruction  go to state 38
    word         go to state 39
    byte         go to state 40
    space        go to state 41
    spacedw      go to state 42
    ascii        go to state 43
    asciiz       go to state 44


State 8

    2 statements: statement .

    $default  reduce using rule 2 (statements)


State 9

    0 $accept: program $end .

    $default  accept


State 10

    3 statements: statements NEWLINE . statement

    TEXT_SECTION   shift, and go to state 1
    DATA_SECTION   shift, and go to state 2
    LABELDECL      shift, and go to state 3
    SECTION_IDENT  shift, and go to state 4

    $default  reduce using rule 13 (labeldec)

    labeldec   go to state 7
    statement  go to state 45


State 11

   12 dataelement: error .

    $default  reduce using rule 12 (dataelement)


State 12

   70 instruction: LABELREF .

    $default  reduce using rule 70 (instruction)


State 13

   34 instruction: ADDI . $@1 rdest ',' rsrc1 $@2 ',' INTEGER

    $default  reduce using rule 32 ($@1)

    $@1  go to state 46


State 14

   36 instruction: ADD . $@3 rdest ',' rsrc1 ',' rsrc2

    $default  reduce using rule 35 ($@3)

    $@3  go to state 47


State 15

   39 instruction: SUBI . $@4 rdest ',' rsrc1 $@5 ',' INTEGER

    $default  reduce using rule 37 ($@4)

    $@4  go to state 48


State 16

   56 instruction: BRANCH . $@15 address

    $default  reduce using rule 55 ($@15)

    $@15  go to state 49


State 17

   53 instruction: BRANCHEQZ . $@13 rsrc1 ',' $@14 address

    $default  reduce using rule 51 ($@13)

    $@13  go to state 50


State 18

   42 instruction: BRANCHGE . $@6 rsrc1 ',' rsrc2 ',' $@7 address

    $default  reduce using rule 40 ($@6)

    $@6  go to state 51


State 19

   45 instruction: BRANCHNE . $@8 rsrc1 ',' rsrc2 ',' $@9 address

    $default  reduce using rule 43 ($@8)

    $@8  go to state 52


State 20

   50 instruction: LOADADDR . $@11 rdest ',' $@12 address

    $default  reduce using rule 48 ($@11)

    $@11  go to state 53


State 21

   47 instruction: LOADBYTE . $@10 rdest ',' offset

    $default  reduce using rule 46 ($@10)

    $@10  go to state 54


State 22

   54 instruction: LOADIMMED . rdest ',' INTEGER

    error     shift, and go to state 55
    REGISTER  shift, and go to state 56

    rdest  go to state 57


State 23

   57 instruction: SYSCALL .

    $default  reduce using rule 57 (instruction)


State 24

   58 instruction: NOOP .

    $default  reduce using rule 58 (instruction)


State 25

   60 instruction: STOREBYTE . $@16 offset ',' rdest

    $default  reduce using rule 59 ($@16)

    $@16  go to state 58


State 26

   62 instruction: LOADDWORD . $@17 rdest ',' offset

    $default  reduce using rule 61 ($@17)

    $@17  go to state 59


State 27

   64 instruction: STOREDWORD . $@18 offset ',' rdest

    $default  reduce using rule 63 ($@18)

    $@18  go to state 60


State 28

   69 instruction: MULT . $@21 rdest ',' rsrc1 ',' rsrc2

    $default  reduce using rule 68 ($@21)

    $@21  go to state 61


State 29

   67 instruction: MULTI . $@19 rdest ',' rsrc1 $@20 ',' INTEGER

    $default  reduce using rule 65 ($@19)

    $@19  go to state 62


State 30

   71 word: WORD . integers
   72     | WORD . error

    error    shift, and go to state 63
    INTEGER  shift, and go to state 64

    integers  go to state 65


State 31

   73 byte: BYTE . bytes
   74     | BYTE . error

    error    shift, and go to state 66
    INTEGER  shift, and go to state 67

    bytes  go to state 68


State 32

   75 space: SPACE . INTEGER
   76      | SPACE . error
   77      | SPACE . INTEGER INTEGER
   78      | SPACE . error

    error    shift, and go to state 69
    INTEGER  shift, and go to state 70


State 33

   79 spacedw: SPACEDW . INTEGER INTEGER
   80        | SPACEDW . error

    error    shift, and go to state 71
    INTEGER  shift, and go to state 72


State 34

   81 ascii: ASCII . STRING
   82      | ASCII . error

    error   shift, and go to state 73
    STRING  shift, and go to state 74


State 35

   83 asciiz: ASCIIZ . STRING
   84       | ASCIIZ . error

    error   shift, and go to state 75
    STRING  shift, and go to state 76


State 36

   30 statement: labeldec addressable .

    $default  reduce using rule 30 (statement)


State 37

    4 addressable: dataelement .

    $default  reduce using rule 4 (addressable)


State 38

    5 addressable: instruction .

    $default  reduce using rule 5 (addressable)


State 39

    6 dataelement: word .

    $default  reduce using rule 6 (dataelement)


State 40

    7 dataelement: byte .

    $default  reduce using rule 7 (dataelement)


State 41

    8 dataelement: space .

    $default  reduce using rule 8 (dataelement)


State 42

    9 dataelement: spacedw .

    $default  reduce using rule 9 (dataelement)


State 43

   10 dataelement: ascii .

    $default  reduce using rule 10 (dataelement)


State 44

   11 dataelement: asciiz .

    $default  reduce using rule 11 (dataelement)


State 45

    3 statements: statements NEWLINE statement .

    $default  reduce using rule 3 (statements)


State 46

   34 instruction: ADDI $@1 . rdest ',' rsrc1 $@2 ',' INTEGER

    error     shift, and go to state 55
    REGISTER  shift, and go to state 56

    rdest  go to state 77


State 47

   36 instruction: ADD $@3 . rdest ',' rsrc1 ',' rsrc2

    error     shift, and go to state 55
    REGISTER  shift, and go to state 56

    rdest  go to state 78


State 48

   39 instruction: SUBI $@4 . rdest ',' rsrc1 $@5 ',' INTEGER

    error     shift, and go to state 55
    REGISTER  shift, and go to state 56

    rdest  go to state 79


State 49

   56 instruction: BRANCH $@15 . address

    error     shift, and go to state 80
    INTEGER   shift, and go to state 81
    LABELREF  shift, and go to state 82

    address  go to state 83


State 50

   53 instruction: BRANCHEQZ $@13 . rsrc1 ',' $@14 address

    error     shift, and go to state 84
    REGISTER  shift, and go to state 85

    rsrc1  go to state 86


State 51

   42 instruction: BRANCHGE $@6 . rsrc1 ',' rsrc2 ',' $@7 address

    error     shift, and go to state 84
    REGISTER  shift, and go to state 85

    rsrc1  go to state 87


State 52

   45 instruction: BRANCHNE $@8 . rsrc1 ',' rsrc2 ',' $@9 address

    error     shift, and go to state 84
    REGISTER  shift, and go to state 85

    rsrc1  go to state 88


State 53

   50 instruction: LOADADDR $@11 . rdest ',' $@12 address

    error     shift, and go to state 55
    REGISTER  shift, and go to state 56

    rdest  go to state 89


State 54

   47 instruction: LOADBYTE $@10 . rdest ',' offset

    error     shift, and go to state 55
    REGISTER  shift, and go to state 56

    rdest  go to state 90


State 55

   23 rdest: error .

    $default  reduce using rule 23 (rdest)


State 56

   22 rdest: REGISTER .

    $default  reduce using rule 22 (rdest)


State 57

   54 instruction: LOADIMMED rdest . ',' INTEGER

    ','  shift, and go to state 91


State 58

   60 instruction: STOREBYTE $@16 . offset ',' rdest

    error    shift, and go to state 92
    INTEGER  shift, and go to state 93
    '('      shift, and go to state 94

    offset  go to state 95


State 59

   62 instruction: LOADDWORD $@17 . rdest ',' offset

    error     shift, and go to state 55
    REGISTER  shift, and go to state 56

    rdest  go to state 96


State 60

   64 instruction: STOREDWORD $@18 . offset ',' rdest

    error    shift, and go to state 92
    INTEGER  shift, and go to state 93
    '('      shift, and go to state 94

    offset  go to state 97


State 61

   69 instruction: MULT $@21 . rdest ',' rsrc1 ',' rsrc2

    error     shift, and go to state 55
    REGISTER  shift, and go to state 56

    rdest  go to state 98


State 62

   67 instruction: MULTI $@19 . rdest ',' rsrc1 $@20 ',' INTEGER

    error     shift, and go to state 55
    REGISTER  shift, and go to state 56

    rdest  go to state 99


State 63

   72 word: WORD error .

    $default  reduce using rule 72 (word)


State 64

   85 integers: INTEGER .

    $default  reduce using rule 85 (integers)


State 65

   71 word: WORD integers .
   86 integers: integers . INTEGER

    INTEGER  shift, and go to state 100

    $default  reduce using rule 71 (word)


State 66

   74 byte: BYTE error .

    $default  reduce using rule 74 (byte)


State 67

   87 bytes: INTEGER .

    $default  reduce using rule 87 (bytes)


State 68

   73 byte: BYTE bytes .
   88 bytes: bytes . INTEGER

    INTEGER  shift, and go to state 101

    $default  reduce using rule 73 (byte)


State 69

   76 space: SPACE error .
   78      | SPACE error .

    $end      reduce using rule 76 (space)
    $end      [reduce using rule 78 (space)]
    NEWLINE   reduce using rule 76 (space)
    NEWLINE   [reduce using rule 78 (space)]
    $default  reduce using rule 76 (space)


State 70

   75 space: SPACE INTEGER .
   77      | SPACE INTEGER . INTEGER

    INTEGER  shift, and go to state 102

    $default  reduce using rule 75 (space)


State 71

   80 spacedw: SPACEDW error .

    $default  reduce using rule 80 (spacedw)


State 72

   79 spacedw: SPACEDW INTEGER . INTEGER

    INTEGER  shift, and go to state 103


State 73

   82 ascii: ASCII error .

    $default  reduce using rule 82 (ascii)


State 74

   81 ascii: ASCII STRING .

    $default  reduce using rule 81 (ascii)


State 75

   84 asciiz: ASCIIZ error .

    $default  reduce using rule 84 (asciiz)


State 76

   83 asciiz: ASCIIZ STRING .

    $default  reduce using rule 83 (asciiz)


State 77

   34 instruction: ADDI $@1 rdest . ',' rsrc1 $@2 ',' INTEGER

    ','  shift, and go to state 104


State 78

   36 instruction: ADD $@3 rdest . ',' rsrc1 ',' rsrc2

    ','  shift, and go to state 105


State 79

   39 instruction: SUBI $@4 rdest . ',' rsrc1 $@5 ',' INTEGER

    ','  shift, and go to state 106


State 80

   26 address: error .

    $default  reduce using rule 26 (address)


State 81

   24 address: INTEGER .

    $default  reduce using rule 24 (address)


State 82

   25 address: LABELREF .

    $default  reduce using rule 25 (address)


State 83

   56 instruction: BRANCH $@15 address .

    $default  reduce using rule 56 (instruction)


State 84

   19 rsrc1: error .

    $default  reduce using rule 19 (rsrc1)


State 85

   18 rsrc1: REGISTER .

    $default  reduce using rule 18 (rsrc1)


State 86

   53 instruction: BRANCHEQZ $@13 rsrc1 . ',' $@14 address

    ','  shift, and go to state 107


State 87

   42 instruction: BRANCHGE $@6 rsrc1 . ',' rsrc2 ',' $@7 address

    ','  shift, and go to state 108


State 88

   45 instruction: BRANCHNE $@8 rsrc1 . ',' rsrc2 ',' $@9 address

    ','  shift, and go to state 109


State 89

   50 instruction: LOADADDR $@11 rdest . ',' $@12 address

    ','  shift, and go to state 110


State 90

   47 instruction: LOADBYTE $@10 rdest . ',' offset

    ','  shift, and go to state 111


State 91

   54 instruction: LOADIMMED rdest ',' . INTEGER

    INTEGER  shift, and go to state 112


State 92

   17 offset: error .

    $default  reduce using rule 17 (offset)


State 93

   15 offset: INTEGER . '(' REGISTER ')'

    '('  shift, and go to state 113


State 94

   16 offset: '(' . REGISTER ')'

    REGISTER  shift, and go to state 114


State 95

   60 instruction: STOREBYTE $@16 offset . ',' rdest

    ','  shift, and go to state 115


State 96

   62 instruction: LOADDWORD $@17 rdest . ',' offset

    ','  shift, and go to state 116


State 97

   64 instruction: STOREDWORD $@18 offset . ',' rdest

    ','  shift, and go to state 117


State 98

   69 instruction: MULT $@21 rdest . ',' rsrc1 ',' rsrc2

    ','  shift, and go to state 118


State 99

   67 instruction: MULTI $@19 rdest . ',' rsrc1 $@20 ',' INTEGER

    ','  shift, and go to state 119


State 100

   86 integers: integers INTEGER .

    $default  reduce using rule 86 (integers)


State 101

   88 bytes: bytes INTEGER .

    $default  reduce using rule 88 (bytes)


State 102

   77 space: SPACE INTEGER INTEGER .

    $default  reduce using rule 77 (space)


State 103

   79 spacedw: SPACEDW INTEGER INTEGER .

    $default  reduce using rule 79 (spacedw)


State 104

   34 instruction: ADDI $@1 rdest ',' . rsrc1 $@2 ',' INTEGER

    error     shift, and go to state 84
    REGISTER  shift, and go to state 85

    rsrc1  go to state 120


State 105

   36 instruction: ADD $@3 rdest ',' . rsrc1 ',' rsrc2

    error     shift, and go to state 84
    REGISTER  shift, and go to state 85

    rsrc1  go to state 121


State 106

   39 instruction: SUBI $@4 rdest ',' . rsrc1 $@5 ',' INTEGER

    error     shift, and go to state 84
    REGISTER  shift, and go to state 85

    rsrc1  go to state 122


State 107

   53 instruction: BRANCHEQZ $@13 rsrc1 ',' . $@14 address

    $default  reduce using rule 52 ($@14)

    $@14  go to state 123


State 108

   42 instruction: BRANCHGE $@6 rsrc1 ',' . rsrc2 ',' $@7 address

    error     shift, and go to state 124
    REGISTER  shift, and go to state 125

    rsrc2  go to state 126


State 109

   45 instruction: BRANCHNE $@8 rsrc1 ',' . rsrc2 ',' $@9 address

    error     shift, and go to state 124
    REGISTER  shift, and go to state 125

    rsrc2  go to state 127


State 110

   50 instruction: LOADADDR $@11 rdest ',' . $@12 address

    $default  reduce using rule 49 ($@12)

    $@12  go to state 128


State 111

   47 instruction: LOADBYTE $@10 rdest ',' . offset

    error    shift, and go to state 92
    INTEGER  shift, and go to state 93
    '('      shift, and go to state 94

    offset  go to state 129


State 112

   54 instruction: LOADIMMED rdest ',' INTEGER .

    $default  reduce using rule 54 (instruction)


State 113

   15 offset: INTEGER '(' . REGISTER ')'

    REGISTER  shift, and go to state 130


State 114

   16 offset: '(' REGISTER . ')'

    ')'  shift, and go to state 131


State 115

   60 instruction: STOREBYTE $@16 offset ',' . rdest

    error     shift, and go to state 55
    REGISTER  shift, and go to state 56

    rdest  go to state 132


State 116

   62 instruction: LOADDWORD $@17 rdest ',' . offset

    error    shift, and go to state 92
    INTEGER  shift, and go to state 93
    '('      shift, and go to state 94

    offset  go to state 133


State 117

   64 instruction: STOREDWORD $@18 offset ',' . rdest

    error     shift, and go to state 55
    REGISTER  shift, and go to state 56

    rdest  go to state 134


State 118

   69 instruction: MULT $@21 rdest ',' . rsrc1 ',' rsrc2

    error     shift, and go to state 84
    REGISTER  shift, and go to state 85

    rsrc1  go to state 135


State 119

   67 instruction: MULTI $@19 rdest ',' . rsrc1 $@20 ',' INTEGER

    error     shift, and go to state 84
    REGISTER  shift, and go to state 85

    rsrc1  go to state 136


State 120

   34 instruction: ADDI $@1 rdest ',' rsrc1 . $@2 ',' INTEGER

    $default  reduce using rule 33 ($@2)

    $@2  go to state 137


State 121

   36 instruction: ADD $@3 rdest ',' rsrc1 . ',' rsrc2

    ','  shift, and go to state 138


State 122

   39 instruction: SUBI $@4 rdest ',' rsrc1 . $@5 ',' INTEGER

    $default  reduce using rule 38 ($@5)

    $@5  go to state 139


State 123

   53 instruction: BRANCHEQZ $@13 rsrc1 ',' $@14 . address

    error     shift, and go to state 80
    INTEGER   shift, and go to state 81
    LABELREF  shift, and go to state 82

    address  go to state 140


State 124

   21 rsrc2: error .

    $default  reduce using rule 21 (rsrc2)


State 125

   20 rsrc2: REGISTER .

    $default  reduce using rule 20 (rsrc2)


State 126

   42 instruction: BRANCHGE $@6 rsrc1 ',' rsrc2 . ',' $@7 address

    ','  shift, and go to state 141


State 127

   45 instruction: BRANCHNE $@8 rsrc1 ',' rsrc2 . ',' $@9 address

    ','  shift, and go to state 142


State 128

   50 instruction: LOADADDR $@11 rdest ',' $@12 . address

    error     shift, and go to state 80
    INTEGER   shift, and go to state 81
    LABELREF  shift, and go to state 82

    address  go to state 143


State 129

   47 instruction: LOADBYTE $@10 rdest ',' offset .

    $default  reduce using rule 47 (instruction)


State 130

   15 offset: INTEGER '(' REGISTER . ')'

    ')'  shift, and go to state 144


State 131

   16 offset: '(' REGISTER ')' .

    $default  reduce using rule 16 (offset)


State 132

   60 instruction: STOREBYTE $@16 offset ',' rdest .

    $default  reduce using rule 60 (instruction)


State 133

   62 instruction: LOADDWORD $@17 rdest ',' offset .

    $default  reduce using rule 62 (instruction)


State 134

   64 instruction: STOREDWORD $@18 offset ',' rdest .

    $default  reduce using rule 64 (instruction)


State 135

   69 instruction: MULT $@21 rdest ',' rsrc1 . ',' rsrc2

    ','  shift, and go to state 145


State 136

   67 instruction: MULTI $@19 rdest ',' rsrc1 . $@20 ',' INTEGER

    $default  reduce using rule 66 ($@20)

    $@20  go to state 146


State 137

   34 instruction: ADDI $@1 rdest ',' rsrc1 $@2 . ',' INTEGER

    ','  shift, and go to state 147


State 138

   36 instruction: ADD $@3 rdest ',' rsrc1 ',' . rsrc2

    error     shift, and go to state 124
    REGISTER  shift, and go to state 125

    rsrc2  go to state 148


State 139

   39 instruction: SUBI $@4 rdest ',' rsrc1 $@5 . ',' INTEGER

    ','  shift, and go to state 149


State 140

   53 instruction: BRANCHEQZ $@13 rsrc1 ',' $@14 address .

    $default  reduce using rule 53 (instruction)


State 141

   42 instruction: BRANCHGE $@6 rsrc1 ',' rsrc2 ',' . $@7 address

    $default  reduce using rule 41 ($@7)

    $@7  go to state 150


State 142

   45 instruction: BRANCHNE $@8 rsrc1 ',' rsrc2 ',' . $@9 address

    $default  reduce using rule 44 ($@9)

    $@9  go to state 151


State 143

   50 instruction: LOADADDR $@11 rdest ',' $@12 address .

    $default  reduce using rule 50 (instruction)


State 144

   15 offset: INTEGER '(' REGISTER ')' .

    $default  reduce using rule 15 (offset)


State 145

   69 instruction: MULT $@21 rdest ',' rsrc1 ',' . rsrc2

    error     shift, and go to state 124
    REGISTER  shift, and go to state 125

    rsrc2  go to state 152


State 146

   67 instruction: MULTI $@19 rdest ',' rsrc1 $@20 . ',' INTEGER

    ','  shift, and go to state 153


State 147

   34 instruction: ADDI $@1 rdest ',' rsrc1 $@2 ',' . INTEGER

    INTEGER  shift, and go to state 154


State 148

   36 instruction: ADD $@3 rdest ',' rsrc1 ',' rsrc2 .

    $default  reduce using rule 36 (instruction)


State 149

   39 instruction: SUBI $@4 rdest ',' rsrc1 $@5 ',' . INTEGER

    INTEGER  shift, and go to state 155


State 150

   42 instruction: BRANCHGE $@6 rsrc1 ',' rsrc2 ',' $@7 . address

    error     shift, and go to state 80
    INTEGER   shift, and go to state 81
    LABELREF  shift, and go to state 82

    address  go to state 156


State 151

   45 instruction: BRANCHNE $@8 rsrc1 ',' rsrc2 ',' $@9 . address

    error     shift, and go to state 80
    INTEGER   shift, and go to state 81
    LABELREF  shift, and go to state 82

    address  go to state 157


State 152

   69 instruction: MULT $@21 rdest ',' rsrc1 ',' rsrc2 .

    $default  reduce using rule 69 (instruction)


State 153

   67 instruction: MULTI $@19 rdest ',' rsrc1 $@20 ',' . INTEGER

    INTEGER  shift, and go to state 158


State 154

   34 instruction: ADDI $@1 rdest ',' rsrc1 $@2 ',' INTEGER .

    $default  reduce using rule 34 (instruction)


State 155

   39 instruction: SUBI $@4 rdest ',' rsrc1 $@5 ',' INTEGER .

    $default  reduce using rule 39 (instruction)


State 156

   42 instruction: BRANCHGE $@6 rsrc1 ',' rsrc2 ',' $@7 address .

    $default  reduce using rule 42 (instruction)


State 157

   45 instruction: BRANCHNE $@8 rsrc1 ',' rsrc2 ',' $@9 address .

    $default  reduce using rule 45 (instruction)


State 158

   67 instruction: MULTI $@19 rdest ',' rsrc1 $@20 ',' INTEGER .

    $default  reduce using rule 67 (instruction)
